<?xml version="1.0" encoding="UTF-8" standalone="no"?>
<!DOCTYPE svg PUBLIC "-//W3C//DTD SVG 1.1//EN" "http://www.w3.org/Graphics/SVG/1.1/DTD/svg11.dtd">
<svg width="100%" height="100%" viewBox="0 0 100 100" version="1.1" xmlns="http://www.w3.org/2000/svg" xmlns:xlink="http://www.w3.org/1999/xlink" xml:space="preserve" xmlns:serif="http://www.serif.com/" style="fill-rule:evenodd;clip-rule:evenodd;stroke-linejoin:round;stroke-miterlimit:2;">
    <rect x="0" y="0" width="100" height="100" style="fill:rgb(122,166,18);"/>
    <g transform="matrix(0.974217,0,0,0.974217,3.46336,1.8832)">
        <g transform="matrix(1,0,0,1,-2.22737,-0.867118)">
            <path d="M69.189,42.042C65.611,33.507 56.707,28.634 47.779,29.917L57.912,22.513L48.354,15.529C63.327,14.502 77.772,23.452 83.078,38.278C83.524,39.524 83.894,40.78 84.172,42.042L89.407,42.042L77.783,57.95L66.16,42.042L69.189,42.042ZM70.702,48.016C70.707,48.08 70.712,48.144 70.717,48.208C70.712,48.144 70.707,48.08 70.702,48.016Z" style="fill:rgb(235,235,235);"/>
        </g>
        <g transform="matrix(6.12323e-17,1,-1,6.12323e-17,97.9603,-0.787609)">
            <path d="M69.189,42.042C65.611,33.507 56.707,28.634 47.779,29.917L57.912,22.513L48.354,15.529C63.327,14.502 77.772,23.452 83.078,38.278C83.524,39.524 83.894,40.78 84.172,42.042L89.407,42.042L77.783,57.95L66.16,42.042L69.189,42.042ZM70.702,48.016C70.707,48.08 70.712,48.144 70.717,48.208C70.712,48.144 70.707,48.08 70.702,48.016Z" style="fill:rgb(171,212,67);"/>
        </g>
        <g transform="matrix(-1,-1.22465e-16,1.22465e-16,-1,97.7639,99.5122)">
            <path d="M69.189,42.042C65.611,33.507 56.707,28.634 47.779,29.917L57.912,22.513L48.354,15.529C63.327,14.502 77.772,23.452 83.078,38.278C83.524,39.524 83.894,40.78 84.172,42.042L89.407,42.042L77.783,57.95L66.16,42.042L69.189,42.042ZM70.702,48.016C70.707,48.08 70.712,48.144 70.717,48.208C70.712,48.144 70.707,48.08 70.702,48.016Z" style="fill:rgb(235,235,235);"/>
        </g>
        <g transform="matrix(6.12323e-17,-1,1,6.12323e-17,-2.43065,99.5681)">
            <path d="M69.189,42.042C65.611,33.507 56.707,28.634 47.779,29.917L57.912,22.513L48.354,15.529C63.327,14.502 77.772,23.452 83.078,38.278C83.524,39.524 83.894,40.78 84.172,42.042L89.407,42.042L77.783,57.95L66.16,42.042L69.189,42.042ZM70.702,48.016C70.707,48.08 70.712,48.144 70.717,48.208C70.712,48.144 70.707,48.08 70.702,48.016Z" style="fill:rgb(171,212,67);"/>
        </g>
    </g>
</svg>
